{
  "$schema" : "http://wso2.org/json-schema/wso2-data-mapper-v5.0.0/schema#",
  "outputType" : "JSON",
  "id" : "http://wso2jsonschema.org",
  "title" : "root",
  "type" : "object",
  "properties" : {
    "payload" : {
      "id" : "http://wso2jsonschema.org/payload",
      "type" : "object",
      "properties" : {
        "atividades" : {
          "id" : "http://wso2jsonschema.org/payload/atividades",
          "type" : "array",
          "items" : [ {
            "id" : "http://wso2jsonschema.org/payload/atividades/0",
            "type" : "string",
            "properties" : {
              "__" : {
                "id" : "http://wso2jsonschema.org/payload/atividades/0",
                "type" : "string"
              }
            }
          } ]
        }
      }
    }
  }
}