{
  "$schema" : "http://wso2.org/json-schema/wso2-data-mapper-v5.0.0/schema#",
  "inputType" : "JSON",
  "id" : "http://wso2jsonschema.org",
  "title" : "root",
  "type" : "object",
  "properties" : {
    "activities" : {
      "id" : "http://wso2jsonschema.org/activities",
      "type" : "array",
      "items" : [ {
        "id" : "http://wso2jsonschema.org/activities/0",
        "type" : "object",
        "properties" : {
          "activity" : {
            "id" : "http://wso2jsonschema.org/activities/0/activity",
            "type" : "string"
          },
          "minAge" : {
            "id" : "http://wso2jsonschema.org/activities/0/minAge",
            "type" : "number"
          }
        }
      } ]
    },
    "others" : {
      "id" : "http://wso2jsonschema.org/others",
      "type" : "array",
      "items" : [ {
        "id" : "http://wso2jsonschema.org/others/0",
        "type" : "string",
        "properties" : {
          "__" : {
            "id" : "http://wso2jsonschema.org/others/0",
            "type" : "string"
          }
        }
      } ]
    }
  }
}