{
  "$schema" : "http://wso2.org/json-schema/wso2-data-mapper-v5.0.0/schema#",
  "inputType" : "JSON",
  "id" : "http://wso2jsonschema.org",
  "title" : "root",
  "type" : "object",
  "properties" : {
    "Pacotes" : {
      "id" : "http://wso2jsonschema.org/Pacotes",
      "type" : "object",
      "properties" : {
        "Pacote" : {
          "id" : "http://wso2jsonschema.org/Pacotes/Pacote",
          "type" : "array",
          "items" : [ {
            "id" : "http://wso2jsonschema.org/Pacotes/Pacote/0",
            "type" : "object",
            "properties" : {
              "Id" : {
                "id" : "http://wso2jsonschema.org/Pacotes/Pacote/0/Id",
                "type" : "number"
              },
              "Viagem" : {
                "id" : "http://wso2jsonschema.org/Pacotes/Pacote/0/Viagem",
                "type" : "string"
              },
              "Alojamento" : {
                "id" : "http://wso2jsonschema.org/Pacotes/Pacote/0/Alojamento",
                "type" : "string"
              },
              "Actividade" : {
                "id" : "http://wso2jsonschema.org/Pacotes/Pacote/0/Actividade",
                "type" : "string"
              },
              "Outros" : {
                "id" : "http://wso2jsonschema.org/Pacotes/Pacote/0/Outros",
                "type" : "string"
              }
            }
          } ]
        }
      }
    }
  }
}