{
  "openapi": "3.0.1",
  "info": {
    "title": "API_Gestao_Reservas",
    "description": "API Doc",
    "version": "v1"
  },
  "paths": {
    "/api/Reserva": {
      "get": {
        "tags": [
          "Reserva"
        ],
        "responses": {
          "200": {
            "description": "Success",
            "content": {
              "text/plain": {
                "schema": {
                  "type": "array",
                  "items": {
                    "$ref": "#/components/schemas/Reserva"
                  }
                }
              },
              "application/json": {
                "schema": {
                  "type": "array",
                  "items": {
                    "$ref": "#/components/schemas/Reserva"
                  }
                }
              },
              "text/json": {
                "schema": {
                  "type": "array",
                  "items": {
                    "$ref": "#/components/schemas/Reserva"
                  }
                }
              }
            }
          }
        }
      }
    },
    "/api/Reserva/{id}": {
      "get": {
        "tags": [
          "Reserva"
        ],
        "parameters": [
          {
            "name": "id",
            "in": "path",
            "required": true,
            "schema": {
              "type": "integer",
              "format": "int32"
            }
          }
        ],
        "responses": {
          "200": {
            "description": "Success",
            "content": {
              "text/plain": {
                "schema": {
                  "$ref": "#/components/schemas/Reserva"
                }
              },
              "application/json": {
                "schema": {
                  "$ref": "#/components/schemas/Reserva"
                }
              },
              "text/json": {
                "schema": {
                  "$ref": "#/components/schemas/Reserva"
                }
              }
            }
          }
        }
      },
      "put": {
        "tags": [
          "Reserva"
        ],
        "parameters": [
          {
            "name": "id",
            "in": "path",
            "required": true,
            "schema": {
              "type": "integer",
              "format": "int32"
            }
          }
        ],
        "requestBody": {
          "content": {
            "application/json": {
              "schema": {
                "$ref": "#/components/schemas/Reserva"
              }
            },
            "text/json": {
              "schema": {
                "$ref": "#/components/schemas/Reserva"
              }
            },
            "application/*+json": {
              "schema": {
                "$ref": "#/components/schemas/Reserva"
              }
            }
          }
        },
        "responses": {
          "200": {
            "description": "Success"
          }
        }
      },
      "delete": {
        "tags": [
          "Reserva"
        ],
        "parameters": [
          {
            "name": "id",
            "in": "path",
            "required": true,
            "schema": {
              "type": "string"
            }
          }
        ],
        "responses": {
          "200": {
            "description": "Success"
          }
        }
      }
    },
    "/api/Reserva/cancelar/{id}": {
      "post": {
        "tags": [
          "Reserva"
        ],
        "parameters": [
          {
            "name": "id",
            "in": "path",
            "required": true,
            "schema": {
              "type": "integer",
              "format": "int32"
            }
          }
        ],
        "requestBody": {
          "content": {
            "application/json": {
              "schema": {
                "$ref": "#/components/schemas/Reserva"
              }
            },
            "text/json": {
              "schema": {
                "$ref": "#/components/schemas/Reserva"
              }
            },
            "application/*+json": {
              "schema": {
                "$ref": "#/components/schemas/Reserva"
              }
            }
          }
        },
        "responses": {
          "200": {
            "description": "Success"
          }
        }
      }
    },
    "/api/Reserva/pagar/{id}": {
      "post": {
        "tags": [
          "Reserva"
        ],
        "parameters": [
          {
            "name": "id",
            "in": "path",
            "required": true,
            "schema": {
              "type": "integer",
              "format": "int32"
            }
          }
        ],
        "requestBody": {
          "content": {
            "application/json": {
              "schema": {
                "$ref": "#/components/schemas/Reserva"
              }
            },
            "text/json": {
              "schema": {
                "$ref": "#/components/schemas/Reserva"
              }
            },
            "application/*+json": {
              "schema": {
                "$ref": "#/components/schemas/Reserva"
              }
            }
          }
        },
        "responses": {
          "200": {
            "description": "Success"
          }
        }
      }
    },
    "/api/Reserva/alojamento": {
      "post": {
        "tags": [
          "Reserva"
        ],
        "requestBody": {
          "content": {
            "application/json": {
              "schema": {
                "$ref": "#/components/schemas/Reserva"
              }
            },
            "text/json": {
              "schema": {
                "$ref": "#/components/schemas/Reserva"
              }
            },
            "application/*+json": {
              "schema": {
                "$ref": "#/components/schemas/Reserva"
              }
            }
          }
        },
        "responses": {
          "200": {
            "description": "Success",
            "content": {
              "text/plain": {
                "schema": {
                  "$ref": "#/components/schemas/Reserva"
                }
              },
              "application/json": {
                "schema": {
                  "$ref": "#/components/schemas/Reserva"
                }
              },
              "text/json": {
                "schema": {
                  "$ref": "#/components/schemas/Reserva"
                }
              }
            }
          }
        }
      }
    },
    "/api/Reserva/viagem": {
      "post": {
        "tags": [
          "Reserva"
        ],
        "requestBody": {
          "content": {
            "application/json": {
              "schema": {
                "$ref": "#/components/schemas/Reserva"
              }
            },
            "text/json": {
              "schema": {
                "$ref": "#/components/schemas/Reserva"
              }
            },
            "application/*+json": {
              "schema": {
                "$ref": "#/components/schemas/Reserva"
              }
            }
          }
        },
        "responses": {
          "200": {
            "description": "Success",
            "content": {
              "text/plain": {
                "schema": {
                  "$ref": "#/components/schemas/Reserva"
                }
              },
              "application/json": {
                "schema": {
                  "$ref": "#/components/schemas/Reserva"
                }
              },
              "text/json": {
                "schema": {
                  "$ref": "#/components/schemas/Reserva"
                }
              }
            }
          }
        }
      }
    },
    "/api/Reserva/atividade": {
      "post": {
        "tags": [
          "Reserva"
        ],
        "requestBody": {
          "content": {
            "application/json": {
              "schema": {
                "$ref": "#/components/schemas/Reserva"
              }
            },
            "text/json": {
              "schema": {
                "$ref": "#/components/schemas/Reserva"
              }
            },
            "application/*+json": {
              "schema": {
                "$ref": "#/components/schemas/Reserva"
              }
            }
          }
        },
        "responses": {
          "200": {
            "description": "Success",
            "content": {
              "text/plain": {
                "schema": {
                  "$ref": "#/components/schemas/Reserva"
                }
              },
              "application/json": {
                "schema": {
                  "$ref": "#/components/schemas/Reserva"
                }
              },
              "text/json": {
                "schema": {
                  "$ref": "#/components/schemas/Reserva"
                }
              }
            }
          }
        }
      }
    },
    "/api/Reserva/outros": {
      "post": {
        "tags": [
          "Reserva"
        ],
        "requestBody": {
          "content": {
            "application/json": {
              "schema": {
                "$ref": "#/components/schemas/Reserva"
              }
            },
            "text/json": {
              "schema": {
                "$ref": "#/components/schemas/Reserva"
              }
            },
            "application/*+json": {
              "schema": {
                "$ref": "#/components/schemas/Reserva"
              }
            }
          }
        },
        "responses": {
          "200": {
            "description": "Success",
            "content": {
              "text/plain": {
                "schema": {
                  "$ref": "#/components/schemas/Reserva"
                }
              },
              "application/json": {
                "schema": {
                  "$ref": "#/components/schemas/Reserva"
                }
              },
              "text/json": {
                "schema": {
                  "$ref": "#/components/schemas/Reserva"
                }
              }
            }
          }
        }
      }
    }
  },
  "components": {
    "schemas": {
      "Estado": {
        "enum": [
          0,
          1,
          2
        ],
        "type": "integer",
        "format": "int32"
      },
      "Reserva": {
        "type": "object",
        "properties": {
          "reservaId": {
            "type": "integer",
            "format": "int32"
          },
          "reservaNome": {
            "type": "string",
            "nullable": true
          },
          "reservaTipo": {
            "$ref": "#/components/schemas/Tipo"
          },
          "reservaEstado": {
            "$ref": "#/components/schemas/Estado"
          }
        },
        "additionalProperties": false
      },
      "Tipo": {
        "enum": [
          0,
          1,
          2,
          3
        ],
        "type": "integer",
        "format": "int32"
      }
    }
  }
}