{
    "viagens": [
        "\"Viagem AB\", \"Viagem AC\"",
        "\"Viagem AEIOU\"",
        [
            "Viagem 1/Trip 1",
            "Viagem 2/",
            "Trip 3/",
            "Viagem 98/"
        ]
    ]
}