{
   "viagens": [
      [
         "Viagem 1/Trip 1",
         "Viagem 2/",
         "Trip 3/",
         "Viagem 98/"
      ],
      [
         "\"Viagem AEIOU\"",
         "\"Viagem UOIEA\"",
         "\"Viagem de x para y\"",
         "\"Viagem de sonho\""
      ],
      [
         "\"Viagem AB\", \"Viagem AC\"",
         "\"Viagem AC\"",
         "\"Viagem AD\"",
         "\"Viagem AE\""
      ]
   ]
}